%YAML 1.1
%TAG !u! tag:unity3d.com,2011:
--- !u!114 &11400000
MonoBehaviour:
  m_ObjectHideFlags: 0
  m_CorrespondingSourceObject: {fileID: 0}
  m_PrefabInternal: {fileID: 0}
  m_GameObject: {fileID: 0}
  m_Enabled: 1
  m_EditorHideFlags: 0
  m_Script: {fileID: 11500000, guid: 73b36ca57874cdc4db323b98c6697529, type: 3}
  m_Name: Faithful Float Targeter
  m_EditorClassIdentifier: 
  _targetDescription: 
  _effectsAreSequential: 0
  _requisites: []
  _effects:
  - {fileID: 11400000, guid: a8092945b6391304c957efe6e724a335, type: 2}
  _targeters:
  - {fileID: 11400000, guid: f51f6f29735f7cb4f94544f6c709749f, type: 2}
  - {fileID: 11400000, guid: d82334e164f7300439cdce9095a2b74c, type: 2}
