%YAML 1.1
%TAG !u! tag:unity3d.com,2011:
--- !u!114 &11400000
MonoBehaviour:
  m_ObjectHideFlags: 0
  m_CorrespondingSourceObject: {fileID: 0}
  m_PrefabInternal: {fileID: 0}
  m_GameObject: {fileID: 0}
  m_Enabled: 1
  m_EditorHideFlags: 0
  m_Script: {fileID: 11500000, guid: 15e6684740396304992fbe6b62989b9f, type: 3}
  m_Name: Double Dive Targeter Potion 2
  m_EditorClassIdentifier: 
  _targetDescription: second potion
  _effectsAreSequential: 0
  _requisites:
  - {fileID: 11400000, guid: cd17bb982a3190546997a7dcb6c6f0b9, type: 2}
  _effects: []
  _revealed: 0
