%YAML 1.1
%TAG !u! tag:unity3d.com,2011:
--- !u!114 &11400000
MonoBehaviour:
  m_ObjectHideFlags: 0
  m_CorrespondingSourceObject: {fileID: 0}
  m_PrefabInternal: {fileID: 0}
  m_GameObject: {fileID: 0}
  m_Enabled: 1
  m_EditorHideFlags: 0
  m_Script: {fileID: 11500000, guid: 8c871c22a2a4389438f9dfda31d6363b, type: 3}
  m_Name: DefaultLibrary
  m_EditorClassIdentifier: 
  _apothecaries:
  - {fileID: 11400000, guid: e308b62dc8b51204c94e9da030dfa98c, type: 2}
  - {fileID: 11400000, guid: 556ec288a8233d646a32ed9675bed34c, type: 2}
  - {fileID: 11400000, guid: 77c958ec047d87746835ba99d77fd5a1, type: 2}
  - {fileID: 11400000, guid: db9df750effa22245b54a0f79462358a, type: 2}
  - {fileID: 11400000, guid: 430a3018446865c4084226bdf8b719a1, type: 2}
  - {fileID: 11400000, guid: 67de8570f97df664fb452c9b8a9bcd72, type: 2}
  - {fileID: 11400000, guid: 4ca3633f0a1e20b45bac98d6ecdadd48, type: 2}
  - {fileID: 11400000, guid: 1b67512ddad6ef54885f6af6f0e839d6, type: 2}
  - {fileID: 11400000, guid: 0efb9fba3a3ed0f4d8c838853251fddd, type: 2}
  - {fileID: 11400000, guid: 119879f2bc33aa4478abbaed06ed40f4, type: 2}
  - {fileID: 11400000, guid: b03015ff3b3dc68489de2db2cbdd3b27, type: 2}
  - {fileID: 11400000, guid: 34d86e5b739184449a6420889ef8f04c, type: 2}
  - {fileID: 11400000, guid: 554f45981a538a94f85ee81fdf07917a, type: 2}
  - {fileID: 11400000, guid: 9bd0d33ef8baf7d49aa9c4271618c582, type: 2}
  - {fileID: 11400000, guid: 2411338676e00d14da059fadb3722d7d, type: 2}
