%YAML 1.1
%TAG !u! tag:unity3d.com,2011:
--- !u!114 &11400000
MonoBehaviour:
  m_ObjectHideFlags: 0
  m_CorrespondingSourceObject: {fileID: 0}
  m_PrefabInternal: {fileID: 0}
  m_GameObject: {fileID: 0}
  m_Enabled: 1
  m_EditorHideFlags: 0
  m_Script: {fileID: 11500000, guid: 73b36ca57874cdc4db323b98c6697529, type: 3}
  m_Name: Spirit Switch Targeter
  m_EditorClassIdentifier: 
  _targetDescription: 
  _effectsAreSequential: 0
  _requisites: []
  _effects:
  - {fileID: 11400000, guid: 61d27e856d8ffeb4181af5c5ce8aa4fd, type: 2}
  _targeters:
  - {fileID: 11400000, guid: 7dd99f3b445a9d84d8ec888775c80e53, type: 2}
  - {fileID: 11400000, guid: 011a198072898ae47a08a37220feb196, type: 2}
