%YAML 1.1
%TAG !u! tag:unity3d.com,2011:
--- !u!114 &11400000
MonoBehaviour:
  m_ObjectHideFlags: 0
  m_CorrespondingSourceObject: {fileID: 0}
  m_PrefabInternal: {fileID: 0}
  m_GameObject: {fileID: 0}
  m_Enabled: 1
  m_EditorHideFlags: 0
  m_Script: {fileID: 11500000, guid: f373da0d9c222bd4cb6faf7c9552507c, type: 3}
  m_Name: Chained Charge Effect 1
  m_EditorClassIdentifier: 
  _moves:
  - _source: {fileID: 11400000, guid: a5a1eb2e3ace7c44e98d444f66b5eb89, type: 2}
    _destination: {fileID: 11400000, guid: 0eba5fb9d81d0fa41b5462f37c17526a, type: 2}
  - _source: {fileID: 11400000, guid: 0eba5fb9d81d0fa41b5462f37c17526a, type: 2}
    _destination: {fileID: 11400000, guid: b2f64dada353fef409cd4a06b8438a99, type: 2}
