%YAML 1.1
%TAG !u! tag:unity3d.com,2011:
--- !u!114 &11400000
MonoBehaviour:
  m_ObjectHideFlags: 0
  m_CorrespondingSourceObject: {fileID: 0}
  m_PrefabInternal: {fileID: 0}
  m_GameObject: {fileID: 0}
  m_Enabled: 1
  m_EditorHideFlags: 0
  m_Script: {fileID: 11500000, guid: b5edaae43bfaa5a44b7736cb208d0d1b, type: 3}
  m_Name: Genie Juggle Requisite 1
  m_EditorClassIdentifier: 
  _orientation: 0
  _minDistance: 1
  _maxDistance: 1
  _allowDiagonal: 0
  _origin: {fileID: 11400000, guid: 69293484d220d974d841faeca529652c, type: 2}
  _destination: {fileID: 11400000, guid: 8ad80e697056e9341920b7f3b960a6ad, type: 2}
