%YAML 1.1
%TAG !u! tag:unity3d.com,2011:
--- !u!114 &11400000
MonoBehaviour:
  m_ObjectHideFlags: 0
  m_CorrespondingSourceObject: {fileID: 0}
  m_PrefabInternal: {fileID: 0}
  m_GameObject: {fileID: 0}
  m_Enabled: 1
  m_EditorHideFlags: 0
  m_Script: {fileID: 11500000, guid: f373da0d9c222bd4cb6faf7c9552507c, type: 3}
  m_Name: Move Effect
  m_EditorClassIdentifier: 
  _moves:
  - _source: {fileID: 11400000, guid: 05e0110e689024a49bc743044c961f0c, type: 2}
    _destination: {fileID: 11400000, guid: dc0673828a2664a40b6b5d3afa7a1ca2, type: 2}
