%YAML 1.1
%TAG !u! tag:unity3d.com,2011:
--- !u!114 &11400000
MonoBehaviour:
  m_ObjectHideFlags: 0
  m_CorrespondingSourceObject: {fileID: 0}
  m_PrefabInternal: {fileID: 0}
  m_GameObject: {fileID: 0}
  m_Enabled: 1
  m_EditorHideFlags: 0
  m_Script: {fileID: 11500000, guid: 342f9f00bd967e34da1392528957b787, type: 3}
  m_Name: Reptilian Rush Ability
  m_EditorClassIdentifier: 
  _name: Reptilian Rush
  _targeter: {fileID: 11400000, guid: 21c09c649ab132d418cded83ee7dfa37, type: 2}
