%YAML 1.1
%TAG !u! tag:unity3d.com,2011:
--- !u!114 &11400000
MonoBehaviour:
  m_ObjectHideFlags: 0
  m_CorrespondingSourceObject: {fileID: 0}
  m_PrefabInternal: {fileID: 0}
  m_GameObject: {fileID: 0}
  m_Enabled: 1
  m_EditorHideFlags: 0
  m_Script: {fileID: 11500000, guid: b5edaae43bfaa5a44b7736cb208d0d1b, type: 3}
  m_Name: Lucky Leap Requisite
  m_EditorClassIdentifier: 
  _orientation: 1
  _minDistance: 2
  _maxDistance: 3
  _allowDiagonal: 1
  _origin: {fileID: 11400000, guid: 3ae8ba8a88058b64ab32679d14ab1ca7, type: 2}
  _destination: {fileID: 11400000, guid: 94a3ad084ab3d034eb4cf7afdf8c9f14, type: 2}
